D:\javaNEW\src\projects\webapp\src\main\java\ru\itis\javalab\repositories\UsersRepository.java
D:\javaNEW\src\projects\webapp\src\main\java\ru\itis\javalab\repositories\SimpleJdbcTemplate.java
D:\javaNEW\src\projects\webapp\src\main\java\ru\itis\javalab\services\UsersService.java
D:\javaNEW\src\projects\webapp\src\main\java\ru\itis\javalab\repositories\UsersRepositoryJdbcImpl.java
D:\javaNEW\src\projects\webapp\src\main\java\ru\itis\javalab\repositories\RowMapper.java
D:\javaNEW\src\projects\webapp\src\main\java\ru\itis\javalab\repositories\CrudRepository.java
D:\javaNEW\src\projects\webapp\src\main\java\ru\itis\javalab\models\User.java
D:\javaNEW\src\projects\webapp\src\main\java\ru\itis\javalab\servlets\UsersServlet.java
D:\javaNEW\src\projects\webapp\src\main\java\ru\itis\javalab\services\UsersServiceImpl.java
